<svg xmlns="http://www.w3.org/2000/svg" xmlns:xlink="http://www.w3.org/1999/xlink" width="68.7" height="67.7" viewBox="0 0 68.7 67.7">
  <defs>
    <filter id="Rectangle_3703" x="0" y="0" width="68.7" height="67.7" filterUnits="userSpaceOnUse">
      <feOffset dy="4" input="SourceAlpha"/>
      <feGaussianBlur stdDeviation="3" result="blur"/>
      <feFlood flood-color="#4055af" flood-opacity="0.059"/>
      <feComposite operator="in" in2="blur"/>
      <feComposite in="SourceGraphic"/>
    </filter>
  </defs>
  <g id="Group_10375" data-name="Group 10375" transform="translate(-1352.65 -227.65)">
    <g id="Group_10330" data-name="Group 10330" transform="translate(4441 -23)">
      <g transform="matrix(1, 0, 0, 1, -3088.35, 250.65)" filter="url(#Rectangle_3703)">
        <rect id="Rectangle_3703-2" data-name="Rectangle 3703" width="50" height="49" rx="3" transform="translate(9.35 5.35)" fill="#fff" stroke="#023047" stroke-width="0.7"/>
      </g>
      <g id="Group_10329" data-name="Group 10329" transform="translate(-2776.223 3338.547) rotate(90)">
        <g id="Group_10328" data-name="Group 10328" transform="translate(-3067.941 287.978) rotate(-90)">
          <path id="Path_37863" data-name="Path 37863" d="M17.593,1.534H6.685a2.25,2.25,0,0,0-4.266,0H.716a.716.716,0,1,0,0,1.432h1.7a2.25,2.25,0,0,0,4.266,0H17.593a.716.716,0,1,0,0-1.432ZM4.552,3.068A.818.818,0,1,1,5.37,2.25.819.819,0,0,1,4.552,3.068Z" transform="translate(0 0)" fill="#023047"/>
          <path id="Path_37864" data-name="Path 37864" d="M17.593,1.534h-1.7a2.25,2.25,0,0,0-4.266,0H.716a.716.716,0,1,0,0,1.432H11.624a2.25,2.25,0,0,0,4.266,0h1.7a.716.716,0,1,0,0-1.432ZM13.757,3.068a.818.818,0,1,1,.818-.818A.819.819,0,0,1,13.757,3.068Z" transform="translate(0 7.644)" fill="#023047"/>
          <path id="Path_37865" data-name="Path 37865" d="M17.593,1.534H9.753a2.25,2.25,0,0,0-4.266,0H.716a.716.716,0,1,0,0,1.432H5.487a2.25,2.25,0,0,0,4.266,0h7.84a.716.716,0,1,0,0-1.432ZM7.62,3.069a.818.818,0,1,1,.818-.818A.819.819,0,0,1,7.62,3.069Z" transform="translate(0 15.288)" fill="#023047"/>
        </g>
        <ellipse id="Ellipse_17" data-name="Ellipse 17" cx="1.669" cy="1.252" rx="1.669" ry="1.252" transform="translate(-3059.646 273.283)" fill="#023047"/>
        <ellipse id="Ellipse_18" data-name="Ellipse 18" cx="1.669" cy="1.252" rx="1.669" ry="1.252" transform="translate(-3067.156 282.463)" fill="#023047"/>
        <ellipse id="Ellipse_19" data-name="Ellipse 19" cx="1.669" cy="1.252" rx="1.669" ry="1.252" transform="translate(-3052.135 279.125)" fill="#023047"/>
      </g>
    </g>
  </g>
</svg>
